# Blender v2.81 (sub 8) OBJ File: 'nc_torch_torch.blend'
# www.blender.org
mtllib nc_torch_torch.mtl
o Cube
v -0.062500 -0.500000 0.062500
v -0.062500 0.375000 0.062500
v -0.062500 -0.500000 -0.062500
v -0.062500 0.375000 -0.062500
v 0.062500 -0.500000 0.062500
v 0.062500 0.375000 0.062500
v 0.062500 -0.500000 -0.062500
v 0.062500 0.375000 -0.062500
v -0.093750 0.000000 0.093750
v -0.093750 0.500000 0.093750
v -0.093750 0.000000 -0.093750
v -0.093750 0.500000 -0.093750
v 0.093750 0.000000 0.093750
v 0.093750 0.500000 0.093750
v 0.093750 0.000000 -0.093750
v 0.093750 0.500000 -0.093750
vt 0.437500 0.437500
vt 0.562500 0.437500
vt 0.562500 0.562500
vt 0.437500 0.562500
vt 0.562500 0.562500
vt 0.437500 0.562500
vt 0.437500 0.437500
vt 0.562500 0.437500
vt 0.562500 -0.000000
vt 0.562500 1.000000
vt 0.437500 1.000000
vt 0.437500 -0.000000
vt 0.562500 -0.000000
vt 0.562500 1.000000
vt 0.437500 1.000000
vt 0.437500 -0.000000
vt 0.562500 -0.000000
vt 0.562500 1.000000
vt 0.437500 1.000000
vt 0.437500 -0.000000
vt 0.562500 -0.000000
vt 0.562500 1.000000
vt 0.437500 1.000000
vt 0.437500 -0.000000
vt 1.000000 0.000000
vt 1.000000 1.000000
vt 0.000000 1.000000
vt 0.000000 0.000000
vt 1.000000 0.000000
vt 1.000000 1.000000
vt 0.000000 1.000000
vt 0.000000 0.000000
vt 1.000000 0.000000
vt 1.000000 1.000000
vt 0.000000 1.000000
vt 0.000000 0.000000
vt 1.000000 0.000000
vt 1.000000 1.000000
vt 0.000000 1.000000
vt 0.000000 0.000000
vn 0.0000 1.0000 0.0000
vn 0.0000 -1.0000 0.0000
vn -1.0000 0.0000 0.0000
vn 0.0000 0.0000 -1.0000
vn 1.0000 0.0000 0.0000
vn 0.0000 0.0000 1.0000
g Cube_Cube_top
usemtl top
s off
f 8/1/1 4/2/1 2/3/1 6/4/1
g Cube_Cube_bottom
usemtl bottom
f 3/5/2 7/6/2 5/7/2 1/8/2
g Cube_Cube_side
usemtl side
f 1/9/3 2/10/3 4/11/3 3/12/3
f 3/13/4 4/14/4 8/15/4 7/16/4
f 7/17/5 8/18/5 6/19/5 5/20/5
f 5/21/6 6/22/6 2/23/6 1/24/6
g Cube_Cube_flame
usemtl flame
f 9/25/3 10/26/3 12/27/3 11/28/3
f 11/29/4 12/30/4 16/31/4 15/32/4
f 15/33/5 16/34/5 14/35/5 13/36/5
f 13/37/6 14/38/6 10/39/6 9/40/6
